%YAML 1.1
%TAG !u! tag:unity3d.com,2011:
--- !u!21 &2100000
Material:
  serializedVersion: 6
  m_ObjectHideFlags: 0
  m_CorrespondingSourceObject: {fileID: 0}
  m_PrefabInstance: {fileID: 0}
  m_PrefabAsset: {fileID: 0}
  m_Name: Custom_Ghost
  m_Shader: {fileID: 4800000, guid: 1182ce89e45392e4c93cc3a2cd8f7848, type: 3}
  m_ShaderKeywords: 
  m_LightmapFlags: 4
  m_EnableInstancingVariants: 0
  m_DoubleSidedGI: 0
  m_CustomRenderQueue: -1
  stringTagMap: {}
  disabledShaderPasses: []
  m_SavedProperties:
    serializedVersion: 3
    m_TexEnvs:
    - _MainTex:
        m_Texture: {fileID: 2800000, guid: 8060c5d55819387459b1506983b230ed, type: 3}
        m_Scale: {x: 1, y: 1}
        m_Offset: {x: 0, y: 0}
    m_Floats:
    - _Glossiness: 1
    - _IsAlive: 1
    - _IsBlinking: 0
    - _Metallic: 0.457
    m_Colors:
    - _BlinkColor: {r: 0.105909556, g: 0.11498856, b: 0.6415094, a: 1}
    - _Color: {r: 1, g: 0.44251367, b: 0.051886797, a: 1}
    - _Color2: {r: 1, g: 0, b: 0, a: 1}
    - _DeadColor: {r: 0, g: 0, b: 0, a: 1}
    - _RegularColor: {r: 0, g: 1, b: 0.4095266, a: 1}
  m_BuildTextureStacks: []
