%YAML 1.1
%TAG !u! tag:unity3d.com,2011:
--- !u!1 &580985403478063677
GameObject:
  m_ObjectHideFlags: 0
  m_CorrespondingSourceObject: {fileID: 0}
  m_PrefabInstance: {fileID: 0}
  m_PrefabAsset: {fileID: 0}
  serializedVersion: 6
  m_Component:
  - component: {fileID: 580985403478063679}
  - component: {fileID: 580985403478063678}
  m_Layer: 0
  m_Name: GameManager
  m_TagString: Untagged
  m_Icon: {fileID: 0}
  m_NavMeshLayer: 0
  m_StaticEditorFlags: 0
  m_IsActive: 1
--- !u!4 &580985403478063679
Transform:
  m_ObjectHideFlags: 0
  m_CorrespondingSourceObject: {fileID: 0}
  m_PrefabInstance: {fileID: 0}
  m_PrefabAsset: {fileID: 0}
  m_GameObject: {fileID: 580985403478063677}
  m_LocalRotation: {x: 0, y: 0, z: 0, w: 1}
  m_LocalPosition: {x: 0, y: 0, z: 0}
  m_LocalScale: {x: 1, y: 1, z: 1}
  m_Children: []
  m_Father: {fileID: 0}
  m_RootOrder: 0
  m_LocalEulerAnglesHint: {x: 0, y: 0, z: 0}
--- !u!114 &580985403478063678
MonoBehaviour:
  m_ObjectHideFlags: 0
  m_CorrespondingSourceObject: {fileID: 0}
  m_PrefabInstance: {fileID: 0}
  m_PrefabAsset: {fileID: 0}
  m_GameObject: {fileID: 580985403478063677}
  m_Enabled: 1
  m_EditorHideFlags: 0
  m_Script: {fileID: 11500000, guid: aa1ff9b139c34044687c4a99b8bfa338, type: 3}
  m_Name: 
  m_EditorClassIdentifier: 
  objectPrefabs:
  - {fileID: 4325468080865041124, guid: 990d6a9ce03b3bc40842b5c5a6047a4e, type: 3}
  - {fileID: 967430346899105454, guid: ebb18031ba0d0d344ac9c77771ba56e3, type: 3}
  - {fileID: -8690279287942457046, guid: a8cac5fb84dc7d043aea77da84adb0b5, type: 3}
  - {fileID: 7447813338677981022, guid: febf47dd6b8ffb14bba218e3afdd9754, type: 3}
  - {fileID: 492280288344904472, guid: 5a38412d0a17b264cbed616e1b4711f9, type: 3}
  _size: {x: 13, y: 13}
